{
  "signed_epochs": [30, 60, 100, 150],
  "batch_size": [16, 32, 64, 128, 256, 512],
  "batch_normalization": [true, false],
  "dropout_rate": [0, 0.2, 0.4],
  "init_lr": [1.0, 0.3, 0.1, 0.03, 0.01, 0.003, 0.001]
}
