{
	"_comment_params": "MNIST HP Tuning (10% data)(NE 16)",
	"tune_hp": true,
	"n_repeat": 5,
	"data_source": "mnist-10",
	"problem_type": "c",
	"input_dim": 784,
	"output_dim": 10,
	"data_size": 7000,
	"data_params": {
		"sigma": 0.0
	},
	"x_transformer": "",
	"y_transformer": "l",
	"ls_max_neurons": [16],
	"batch_normalization": true,
	"dropout_rate": 0,
	"hidden_activation": "relu",
	"output_activation": "softmax",
	"loss_function": "sparse_categorical_crossentropy",
	"signed_epochs": 60,
	"limit_epochs": 1000,
	"batch_size": 64,
	"same_train_test": false,
	"test_split": 0.1428572,
	"validation_split": 0.2,
	"weight_initializer": "glorot_uniform",
	"weight_init_scale": 0.05,
	"bias_initializer": "zeros",
	"bias_init_scale": 1.0,
	"optimizer": "adam",
	"reduce_lr_on_plateau": true,
	"init_lr": 0.01,
	"min_lr_fraction": 0.001,
	"reduce_lr_factor": 0.3,
	"min_loss_improvement": 0.0,
	"patience": 5,
	"acc_metric": "acc",
	"evo_method": "NE",
	"zeta": 0.2,
	"epsilon": 1.0,
	"neuron_increment_stages": [],
	"n_evo_rounds": 10,
	"min_evo_scale": 1,
	"std_evo_scale": 0.3,
	"neuron_evo_metric": "p-sum",
	"neuron_evo_p": 2,
	"evo_output_layer": true,
	"evo_mask_interval": 4,
	"PYTHONHASHSEED": 0,
	"TF_DETERMINISTIC_OPS": 1,
	"seed_np_random": -1,
	"seed_python_random": -1,
	"seed_tf_random": -1,
	"other_params": {}
}
