{
  "credential_file": "credentials.json",
  "mongodb": {
    "use_mongodb": true,
    "mongo_host": "127.0.0.1",
    "mongo_port": 27017,
    "mongo_db": "evoDB",
    "mongo_collection": "evoCollection",
    "debug_collection": "debugCollection"
  },
  "visualization": {
    "plt_backend": "QT5Agg",
    "show_fig": false,
    "save_fig": true,
    "figsize": [8, 6],
    "dpi": 100
  },
  "debug": {
    "chk": true,
    "dbg": false,
    "del_unsplit_raw": false,
    "del_split_raw": false
  }
}
