{
	"_comment_params": "zigzag-1d [16] RLE formal (new)",
	"tune_hp": false,
	"n_repeat": 100,
	"data_source": "zigzag-1d",
	"problem_type": "f",
	"input_dim": 1,
	"output_dim": 1,
	"data_size": 2000,
	"data_params": {
		"sigma": 0.0
	},
	"x_transformer": "s",
	"y_transformer": "s",
	"ls_max_neurons": [16],
	"batch_normalization": false,
	"dropout_rate": 0,
	"hidden_activation": "relu",
	"output_activation": "linear",
	"loss_function": "mse",
	"signed_epochs": 100,
	"limit_epochs": 1000,
	"batch_size": 32,
	"same_train_test": false,
	"test_split": 0.2,
	"validation_split": 0.2,
	"weight_initializer": "glorot_uniform",
	"weight_init_scale": 0.05,
	"bias_initializer": "zeros",
	"bias_init_scale": 1.0,
	"optimizer": "adam",
	"reduce_lr_on_plateau": true,
	"init_lr": 0.01,
	"min_lr_fraction": 0.001,
	"reduce_lr_factor": 0.3,
	"min_loss_improvement": 0.0,
	"patience": 5,
	"acc_metric": "r2_metric",
	"evo_method": "RLE",
	"zeta": 0.5,
	"epsilon": 1.0,
	"neuron_increment_stages": [],
	"n_evo_rounds": 20,
	"min_evo_scale": 1,
	"std_evo_scale": 1.0,
	"neuron_evo_metric": "p-sum",
	"neuron_evo_p": 2,
	"PYTHONHASHSEED": 0,
	"TF_DETERMINISTIC_OPS": 1,
	"seed_np_random": -1,
	"seed_python_random": -1,
	"seed_tf_random": -1,
	"other_params": {}
}
